…
&nbsp;  
As you can see above, there are lots of words in this text like this. Let’s try to reduce the inflection.
```
# stemming using SnowballC
wordsVec %>%
  mutate(stem = wordStem(word)) %>%
    count(stem, sort = TRUE)
```
---
    ## # A tibble: 570 x 2
    ##    stem        n
    ##    <chr>   <int>
    ##  1 tree       88
    ##  2 fir        34
    ##  3 littl      23
    ##  4 said       22
    ##  5 stori      16
    ##  6 thought    16
    ##  7 branch     15
    ##  8 on         15
    ##  9 came       14
    ## 10 know       14
    ## # ... with 560 more rows  

&nbsp;  
You can also perform the same stuff above using a single function called *tokenize_word_stems* from the pakage *tokenizers* as shown below
```
hca_fairytales() %>%
    filter(book == "The fir tree",
           language == "English") %>%
        select(text) %>%
            paste0() %>%
                tokenize_word_stems(stopwords = stopwords::stopwords("en")) %>%
                    as.data.frame(col.names="stem") %>%
                        as_tibble() %>% count(stem, sort=TRUE)
```
---
    ## # A tibble: 566 x 2
    ##    stem        n
    ##    <chr>   <int>
    ##  1 tree       89
    ##  2 fir        34
    ##  3 littl      23
    ##  4 said       22
    ##  5 stori      16
    ##  6 thought    16
    ##  7 branch     15
    ##  8 one        15
    ##  9 came       14
    ## 10 know       14
    ## # ... with 556 more rows
…
&nbsp;  
Hunspell uses a special dictionary format that defines which characters, words and conjugations are valid in a given language.

Let’s use the hungspell dictionary on the words vector now
```
wordsVec %>%
    mutate(stem=hunspell_stem(word)) %>%
    unnest(stem) %>% count(stem, sort = TRUE)
```
---
    ## # A tibble: 595 x 2
    ##    stem       n
    ##    <chr>  <int>
    ##  1 tree      89
    ##  2 fir       34
    ##  3 little    23
    ##  4 said      22
    ##  5 story     16
    ##  6 branch    15
    ##  7 one       15
    ##  8 came      14
    ##  9 know      14
    ## 10 now       14
    ## # ... with 585 more rows
…
