…
    typeof(trending_repos)  
     
---
    ## [1] "list"
    
    
    As we can see the recieved data is in the form of a list. So let's convert it to a data frame.
     

    trending_repos_df <- data.frame(trending_repos)
    trending_repos_df <- as_tibble(trending_repos_df)
    trending_repos_df  
    
----
    ## # A tibble: 2,288 x 18
    ##        id name  full_name   size open_issues fork  stargazers_count watchers
    ##     <int> <chr> <chr>      <int>       <int> <lgl>            <int>    <int>
    ##  1 2.42e8 fuck~ labulado~ 109612          33 FALSE            86633    86633
    ##  2 2.38e8 COVI~ CSSEGISa~ 988047        1673 FALSE            25938    25938
    ##  3 2.31e8 exca~ excalidr~  24629         302 FALSE            18945    18945
    ##  4 2.42e8 tools rome/too~  92295          98 FALSE            14919    14919
    ##  5 2.51e8 CnC_~ electron~   7916          80 FALSE            14823    14823
    ##  6 2.46e8 Vent~ ventoy/V~ 154039         313 FALSE            14426    14426
    ##  7 2.38e8 diag~ mingramm~  26595         181 FALSE            13111    13111
    ##  8 2.34e8 fiber gofiber/~  25790          18 FALSE            12433    12433
    ##  9 2.44e8 fast~ fastai/f~  76662          54 FALSE            12022    12022
    ## 10 2.43e8 hero~ tailwind~   1043         158 FALSE            11644    11644
    ## # ... with 2,278 more rows, and 10 more variables: forks <int>, language <chr>,
    ## #   has_issues <lgl>, has_downloads <lgl>, has_wiki <lgl>, created_at <chr>,
    ## #   updated_at <chr>, pushed_at <chr>, url <chr>, description <chr>
…
